%YAML 1.1
%TAG !u! tag:unity3d.com,2011:
--- !u!114 &11400000
MonoBehaviour:
  m_ObjectHideFlags: 0
  m_CorrespondingSourceObject: {fileID: 0}
  m_PrefabInstance: {fileID: 0}
  m_PrefabAsset: {fileID: 0}
  m_GameObject: {fileID: 0}
  m_Enabled: 1
  m_EditorHideFlags: 0
  m_Script: {fileID: 11500000, guid: e3b4c4e4a3c8f2a4689aefff0bd47807, type: 3}
  m_Name: Bluegill
  m_EditorClassIdentifier: 
  Id: bluegill
  Name: Bluegill
  Photo: {fileID: 21300000, guid: ae04b2b084b03fc48b3b43ba2f2fcd21, type: 3}
  BaseWeight: 1
  BaseFishZone: 45
  BaseEscapeRate: 0.04
  BaseCatchRate: 0.46
  BaseMaxMoveSpeed: 0.3
  BaseLineDegradation: 0.4
  BaseActivityFactor: 1.2
  WeightPerLevel: 0.34
  FishZonePerLevel: 0.4
  EscapeRatePerLevel: 0.0044
  CatchRatePerLevel: 0.0015
  MaxMoveSpeedPerLevel: 0.01
  LineDegradationPerLevel: 0.07
  ActivityFactorPerLevel: 0.01
