%YAML 1.1
%TAG !u! tag:unity3d.com,2011:
--- !u!114 &11400000
MonoBehaviour:
  m_ObjectHideFlags: 0
  m_CorrespondingSourceObject: {fileID: 0}
  m_PrefabInstance: {fileID: 0}
  m_PrefabAsset: {fileID: 0}
  m_GameObject: {fileID: 0}
  m_Enabled: 1
  m_EditorHideFlags: 0
  m_Script: {fileID: 11500000, guid: e3b4c4e4a3c8f2a4689aefff0bd47807, type: 3}
  m_Name: BullTrout
  m_EditorClassIdentifier: 
  Id: bull-trout
  Name: Bull Trout
  Photo: {fileID: 21300000, guid: dce12664003282d45ba321e6a4ea7908, type: 3}
  BaseWeight: 4.4
  BaseFishZone: 35
  BaseEscapeRate: 0.06
  BaseCatchRate: 0.24
  BaseMaxMoveSpeed: 0.1
  BaseLineDegradation: 1
  BaseActivityFactor: 3
  WeightPerLevel: 1.53
  FishZonePerLevel: 0.5
  EscapeRatePerLevel: 0.004
  CatchRatePerLevel: 0.002
  MaxMoveSpeedPerLevel: 0.002
  LineDegradationPerLevel: 0.05
  ActivityFactorPerLevel: 0.03
